# Blender v2.79 (sub 0) OBJ File: 'forest_ground.blend'
# www.blender.org
mtllib forest_ground.mtl
o Plane
v 25.000000 0.000000 -25.000000
v -25.000000 0.000000 -25.000000
v 25.000000 0.000000 25.000000
v -25.000000 0.000000 25.000000
vt 2.499600 -1.499600
vt -1.499600 2.499600
vt -1.499600 -1.499600
vt 2.499600 2.499600
vn 0.0000 1.0000 0.0000
usemtl Forest
s off
f 2/1/1 3/2/1 1/3/1
f 2/1/1 4/4/1 3/2/1
