# Blender MTL File: 'Lamp.blend'
# Material Count: 3

newmtl Material
Ns 96.078431
Ka 0.000000 0.000000 0.000000
Kd 0.640000 0.640000 0.640000
Ks 0.000000 0.000000 0.000000
Ni 1.000000
d 1.000000
illum 1
map_Kd Roof2.jpg

newmtl bLACK
Ns 96.078431
Ka 0.000000 0.000000 0.000000
Kd 0.009555 0.013910 0.008207
Ks 0.500000 0.500000 0.500000
Ni 1.000000
d 1.000000
illum 2
map_Kd metal.png

newmtl lIGHT]
Ns 96.078431
Ka 0.000000 0.000000 0.000000
Kd 0.640000 0.539741 0.331066
Ks 0.500000 0.500000 0.500000
Ni 1.000000
d 1.000000
illum 2
map_Kd image_blanche_paint.png
