# Exported from Wings 3D 0.98.34
mtllib landscape.mtl
o cone2
#128 vertices, 190 faces
v 1.00000000 5.5600305e-2 0.0000000e+0
v 0.99518473 5.6995198e-2 9.8017140e-2
v 0.98078528 6.5390471e-2 0.19509032
v 0.95694034 4.4481679e-2 0.29028468
v 0.92387953 6.4114917e-2 0.38268343
v 0.88192126 5.0160916e-2 0.47139674
v 0.83146961 4.8365378e-2 0.55557023
v 0.77301045 7.3352296e-2 0.63439328
v 0.70710678 5.1102663e-2 0.70710678
v 0.63439328 5.1725248e-2 0.77301045
v 0.55557023 7.6594727e-2 0.83146961
v 0.47139674 6.9433570e-2 0.88192126
v 0.38268343 6.2167363e-2 0.92387953
v 0.29028468 5.7432375e-2 0.95694034
v 0.19509032 6.7707860e-2 0.98078528
v 9.8017140e-2 4.4447302e-2 0.99518473
v 6.1230318e-17 5.6898009e-2 1.00000000
v -9.8017140e-2 7.0604667e-2 0.99518473
v -0.19509032 6.9604222e-2 0.98078528
v -0.29028468 5.3736067e-2 0.95694034
v -0.38268343 6.7053895e-2 0.92387953
v -0.47139674 5.2653870e-2 0.88192126
v -0.55557023 6.4263859e-2 0.83146961
v -0.63439328 4.3517769e-2 0.77301045
v -0.70710678 6.0747894e-2 0.70710678
v -0.77301045 6.2966765e-2 0.63439328
v -0.83146961 6.0831252e-2 0.55557023
v -0.88192126 6.0566129e-2 0.47139674
v -0.92387953 7.0369342e-2 0.38268343
v -0.95694034 5.3854162e-2 0.29028468
v -0.98078528 4.2801034e-2 0.19509032
v -0.99518473 4.8361180e-2 9.8017140e-2
v -1.00000000 7.0009618e-2 1.2246064e-16
v -0.99518473 6.3321603e-2 -9.8017140e-2
v -0.98078528 6.2526920e-2 -0.19509032
v -0.95694034 8.8211474e-2 -0.29028468
v -0.92387953 4.7854734e-2 -0.38268343
v -0.88192126 7.2844897e-2 -0.47139674
v -0.83146961 7.6611064e-2 -0.55557023
v -0.77301045 7.4352692e-2 -0.63439328
v -0.70710678 4.9463909e-2 -0.70710678
v -0.63439328 7.0346211e-2 -0.77301045
v -0.55557023 5.9730039e-2 -0.83146961
v -0.47139674 7.4881905e-2 -0.88192126
v -0.38268343 6.3960334e-2 -0.92387953
v -0.29028468 6.5903988e-2 -0.95694034
v -0.19509032 5.2000330e-2 -0.98078528
v -9.8017140e-2 9.0709120e-2 -0.99518473
v -1.8369095e-16 7.4700886e-2 -1.00000000
v 9.8017140e-2 5.2752174e-2 -0.99518473
v 0.19509032 6.0631865e-2 -0.98078528
v 0.29028468 3.8417872e-2 -0.95694034
v 0.38268343 5.5066353e-2 -0.92387953
v 0.47139674 8.4983540e-2 -0.88192126
v 0.55557023 5.2219075e-2 -0.83146961
v 0.63439328 9.7459780e-2 -0.77301045
v 0.70710678 5.6824020e-2 -0.70710678
v 0.77301045 5.0662547e-2 -0.63439328
v 0.83146961 4.3653100e-2 -0.55557023
v 0.88192126 4.4815892e-2 -0.47139674
v 0.92387953 5.5135796e-2 -0.38268343
v 0.95694034 5.0088385e-2 -0.29028468
v 0.98078528 6.0268237e-2 -0.19509032
v 0.99518473 5.8768920e-2 -9.8017140e-2
v 0.84523294 -9.1891042e-5 2.2727992e-2
v 0.82135025 -9.1891042e-5 5.8286975e-2
v 0.77812277 -9.1891042e-5 0.15484581
v 0.70115780 -9.1891042e-5 0.24223273
v 0.77735356 -9.1891042e-5 0.28371743
v 0.70709546 -9.1891042e-5 0.39772140
v 0.64926916 -9.1891042e-5 0.44939035
v 0.57861423 -9.1891042e-5 0.49591731
v 0.50371575 -9.1891042e-5 0.59228818
v 0.48670777 -9.1891042e-5 0.64210719
v 0.32941591 -9.1891042e-5 0.65632997
v 0.31859788 -9.1891042e-5 0.71415135
v 0.29886961 -9.1891042e-5 0.74366732
v 0.22260349 -9.1891042e-5 0.77471193
v 0.12071338 -9.1891042e-5 0.75925624
v 6.7167849e-2 -9.1891042e-5 0.79881222
v 2.9839522e-2 -9.1891042e-5 0.83761531
v -0.11558945 -9.1891042e-5 0.81146408
v -0.17656056 -9.1891042e-5 0.80521275
v -0.28495678 -9.1891042e-5 0.79695227
v -0.32338912 -9.1891042e-5 0.77825166
v -0.43379448 -9.1891042e-5 0.69369142
v -0.48194769 -9.1891042e-5 0.68185119
v -0.62640513 -9.1891042e-5 0.63881845
v -0.64581349 -9.1891042e-5 0.59812258
v -0.70647456 -9.1891042e-5 0.51867502
v -0.75388345 -9.1891042e-5 0.47301715
v -0.77586801 -9.1891042e-5 0.37057183
v -0.78962701 -9.1891042e-5 0.30335035
v -0.75614596 -9.1891042e-5 0.23186295
v -0.78132637 -9.1891042e-5 0.13038300
v -0.87086404 -9.1891042e-5 5.4530559e-2
v -0.87620393 -9.1891042e-5 -3.7693312e-2
v -0.82109102 -9.1891042e-5 -9.6739766e-2
v -0.92916170 -9.1891042e-5 -0.18602780
v -0.80858798 -9.1891042e-5 -0.25415881
v -0.71698669 -9.1891042e-5 -0.31553561
v -0.78318186 -9.1891042e-5 -0.38744776
v -0.68234579 -9.1891042e-5 -0.44278884
v -0.65052977 -9.1891042e-5 -0.52049100
v -0.64999857 -9.1891042e-5 -0.56385066
v -0.55966380 -9.1891042e-5 -0.60869504
v -0.48616561 -9.1891042e-5 -0.71346035
v -0.41702804 -9.1891042e-5 -0.70079445
v -0.33218835 -9.1891042e-5 -0.75763244
v -0.21658057 -9.1891042e-5 -0.81860355
v -0.18923685 -9.1891042e-5 -0.79999603
v -0.16930524 -9.1891042e-5 -0.86655470
v -6.5050516e-2 -9.1891042e-5 -0.83662533
v 7.3822117e-2 -9.1891042e-5 -0.84865779
v 0.18377895 -9.1891042e-5 -0.79651583
v 0.22802847 -9.1891042e-5 -0.79569841
v 0.36807718 -9.1891042e-5 -0.73916185
v 0.41514959 -9.1891042e-5 -0.72787643
v 0.42180086 -9.1891042e-5 -0.70781135
v 0.52755865 -9.1891042e-5 -0.64286621
v 0.55631642 -9.1891042e-5 -0.59538885
v 0.63991230 -9.1891042e-5 -0.52900939
v 0.57961848 -9.1891042e-5 -0.48049309
v 0.64322446 -9.1891042e-5 -0.39331517
v 0.72862100 -9.1891042e-5 -0.32431442
v 0.71438067 -9.1891042e-5 -0.23233322
v 0.75147860 -9.1891042e-5 -0.17734138
v 0.79147300 -9.1891042e-5 -7.4356237e-2
vn -0.23013050 0.97286846 -2.3809743e-2
vn -0.20849327 0.97404183 -8.8164994e-2
vn -0.13704887 0.98649341 -8.9712668e-2
vn -5.8420894e-2 0.99782079 3.0670357e-2
vn -0.19496418 0.98077868 -7.8838590e-3
vn -0.16161259 0.98388650 -7.6476937e-2
vn -7.3836788e-2 0.99260162 -9.6385412e-2
vn -0.10739929 0.98865598 -0.10499882
vn -9.4776586e-2 0.99418721 -5.1080224e-2
vn -8.0357315e-2 0.97548721 -0.20485948
vn -2.9041706e-2 0.99884280 -3.8335890e-2
vn -0.16226386 0.98005882 -0.11469591
vn -0.13489644 0.97812041 -0.15837747
vn -2.6053268e-2 0.98586078 -0.16552871
vn -1.5993937e-2 0.99753874 -6.8269022e-2
vn -0.11937414 0.97759514 -0.17337118
vn -0.11210593 0.96478221 -0.23796545
vn 4.1559223e-2 0.97768793 -0.20591054
vn 1.1067241e-2 0.99223752 -0.12386372
vn 7.4026161e-2 0.95914464 -0.27305987
vn 0.10684190 0.97920618 -0.17245307
vn 7.1951119e-2 0.98631189 -0.14836403
vn 3.2473168e-2 0.99229613 -0.11955704
vn 0.20255723 0.95084647 -0.23422543
vn 0.21553243 0.96775608 -0.13036084
vn 0.17995584 0.97154300 -0.15401331
vn 0.29905194 0.94108247 -0.15789779
vn 0.25180216 0.96493973 -7.4074178e-2
vn 0.34515631 0.93646845 6.2401616e-2
vn 9.8781190e-2 0.99498406 -1.5779370e-2
vn 6.9660736e-2 0.99652570 -4.5649810e-2
vn 0.24138469 0.97041619 -5.0838127e-3
vn 0.36665901 0.91477822 0.16953459
vn 0.22215149 0.97465305 -2.6460397e-2
vn 0.48343499 0.87497515 2.6628760e-2
vn 0.28232661 0.93562839 0.21187544
vn 4.1506958e-2 0.99912628 -4.8828904e-3
vn 0.25346128 0.95441736 0.15762261
vn 0.11424696 0.98801950 0.10375501
vn 0.30981500 0.94711385 8.3606386e-2
vn 0.27473870 0.95635376 9.9529567e-2
vn 9.8421903e-2 0.98666599 0.12962777
vn 9.1836340e-2 0.96192805 0.25741118
vn 4.7833589e-2 0.98487447 0.16653597
vn 9.2553200e-2 0.98357482 0.15496607
vn 6.2519469e-2 0.96272344 0.26316325
vn 5.8943595e-2 0.99639710 6.0979225e-2
vn 9.0847695e-2 0.92939476 0.35773186
vn -1.4592557e-2 0.98621684 0.16481322
vn -8.6911008e-3 0.95783539 0.28718604
vn -2.1513354e-2 0.99581887 8.8780362e-2
vn -3.9061473e-2 0.97769965 0.20634338
vn -3.0093534e-2 0.99514306 9.3726570e-2
vn -0.15386477 0.95745077 0.24415908
vn -7.3269975e-2 0.99568426 5.6959380e-2
vn -0.21395460 0.94928216 0.23040576
vn -8.8073046e-2 0.99305764 7.7972248e-2
vn -0.16470659 0.98317504 7.8984666e-2
vn -3.0448660e-2 0.99940223 -1.6372577e-2
vn -0.11544766 0.99099943 6.7764085e-2
vn -0.16256381 0.98440063 6.7293390e-2
vn -0.11511479 0.99308440 2.3064225e-2
vn -0.12271116 0.99031371 6.4967095e-2
vn -0.13928370 0.98916123 4.6477000e-2
vn -0.31615526 0.94861079 -1.3543437e-2
vn -0.31615526 0.94861079 -1.3543437e-2
vn -0.31615526 0.94861079 -1.3543437e-2
vn -0.31615526 0.94861079 -1.3543437e-2
vn -0.29525577 0.95234715 -7.6543728e-2
vn -0.29525577 0.95234715 -7.6543728e-2
vn -0.25870976 0.96265241 -7.9809806e-2
vn -0.25870976 0.96265241 -7.9809806e-2
vn -0.25870976 0.96265241 -7.9809806e-2
vn -0.25870976 0.96265241 -7.9809806e-2
vn -0.22779188 0.96763124 0.10863077
vn -0.22779188 0.96763124 0.10863077
vn -0.22779188 0.96763124 0.10863077
vn -0.26731395 0.95219211 -0.14789669
vn -0.26731395 0.95219211 -0.14789669
vn -0.26731395 0.95219211 -0.14789669
vn -0.25645989 0.96526924 -4.9835991e-2
vn -0.25645989 0.96526924 -4.9835991e-2
vn -0.15437860 0.96398103 -0.21658214
vn -0.15437860 0.96398103 -0.21658214
vn -0.15437860 0.96398103 -0.21658214
vn -0.15437860 0.96398103 -0.21658214
vn -0.22127942 0.95530464 -0.19603177
vn -0.22127942 0.95530464 -0.19603177
vn -0.22217372 0.96934580 -0.10491694
vn -0.22217372 0.96934580 -0.10491694
vn -0.22217372 0.96934580 -0.10491694
vn -0.22217372 0.96934580 -0.10491694
vn -7.8834714e-2 0.95415241 -0.28875295
vn -7.8834714e-2 0.95415241 -0.28875295
vn -0.13006604 0.95803611 -0.25544007
vn -0.13006604 0.95803611 -0.25544007
vn -0.13006604 0.95803611 -0.25544007
vn -0.13006604 0.95803611 -0.25544007
vn -0.19598161 0.95612881 -0.21773588
vn -0.19598161 0.95612881 -0.21773588
vn -0.18137765 0.95437020 -0.23723337
vn -0.18137765 0.95437020 -0.23723337
vn -0.18137765 0.95437020 -0.23723337
vn -0.18137765 0.95437020 -0.23723337
vn -5.7087248e-2 0.95795117 -0.28119494
vn -5.7087248e-2 0.95795117 -0.28119494
vn -8.9793056e-2 0.96165865 -0.25913289
vn -8.9793056e-2 0.96165865 -0.25913289
vn -8.9793056e-2 0.96165865 -0.25913289
vn -8.9793056e-2 0.96165865 -0.25913289
vn -7.2744872e-2 0.97505097 -0.20972313
vn -7.2744872e-2 0.97505097 -0.20972313
vn -1.7201067e-2 0.94324974 -0.33163844
vn -1.7201067e-2 0.94324974 -0.33163844
vn -1.7201067e-2 0.94324974 -0.33163844
vn -1.7201067e-2 0.94324974 -0.33163844
vn 9.5455395e-2 0.92593057 -0.36543240
vn 9.5455395e-2 0.92593057 -0.36543240
vn 8.1023724e-3 0.93518381 -0.35407004
vn 8.1023724e-3 0.93518381 -0.35407004
vn 8.1023724e-3 0.93518381 -0.35407004
vn 8.1023724e-3 0.93518381 -0.35407004
vn 8.3018010e-2 0.94535401 -0.31529954
vn 8.3018010e-2 0.94535401 -0.31529954
vn 0.15937406 0.93557495 -0.31511811
vn 0.15937406 0.93557495 -0.31511811
vn 0.15937406 0.93557495 -0.31511811
vn 0.15937406 0.93557495 -0.31511811
vn 0.11690963 0.96212871 -0.24625290
vn 0.11690963 0.96212871 -0.24625290
vn 0.10799202 0.94481708 -0.30928693
vn 0.10799202 0.94481708 -0.30928693
vn 0.10799202 0.94481708 -0.30928693
vn 0.10799202 0.94481708 -0.30928693
vn 0.21352832 0.93277089 -0.29042061
vn 0.21352832 0.93277089 -0.29042061
vn 0.40460002 0.87618748 -0.26190518
vn 0.40460002 0.87618748 -0.26190518
vn 0.40460002 0.87618748 -0.26190518
vn 0.40460002 0.87618748 -0.26190518
vn 0.34887918 0.89253443 -0.28577195
vn 0.34887918 0.89253443 -0.28577195
vn 0.39009216 0.88957102 -0.23767941
vn 0.39009216 0.88957102 -0.23767941
vn 0.39009216 0.88957102 -0.23767941
vn 0.39009216 0.88957102 -0.23767941
vn 0.37823847 0.91321773 -0.15155537
vn 0.37823847 0.91321773 -0.15155537
vn 0.41109455 0.91068396 -4.0694002e-2
vn 0.41109455 0.91068396 -4.0694002e-2
vn 0.41109455 0.91068396 -4.0694002e-2
vn 0.41109455 0.91068396 -4.0694002e-2
vn 0.19914621 0.95910083 -0.20116258
vn 0.19914621 0.95910083 -0.20116258
vn 0.23146459 0.96783155 -9.8621686e-2
vn 0.23146459 0.96783155 -9.8621686e-2
vn 0.23146459 0.96783155 -9.8621686e-2
vn 0.23146459 0.96783155 -9.8621686e-2
vn 0.38852578 0.91714526 8.8838566e-2
vn 0.38852578 0.91714526 8.8838566e-2
vn 0.45887497 0.87472430 0.15585623
vn 0.45887497 0.87472430 0.15585623
vn 0.45887497 0.87472430 0.15585623
vn 0.45887497 0.87472430 0.15585623
vn 0.34226455 0.93960125 -2.1166766e-3
vn 0.34226455 0.93960125 -2.1166766e-3
vn 0.55603160 0.82018124 0.13465358
vn 0.55603160 0.82018124 0.13465358
vn 0.55603160 0.82018124 0.13465358
vn 0.55603160 0.82018124 0.13465358
vn 0.49444423 0.86512288 8.4186115e-2
vn 0.49444423 0.86512288 8.4186115e-2
vn 0.34062051 0.93917665 4.3873602e-2
vn 0.34062051 0.93917665 4.3873602e-2
vn 0.34062051 0.93917665 4.3873602e-2
vn 0.34062051 0.93917665 4.3873602e-2
vn 0.35734039 0.87120215 0.33662244
vn 0.35734039 0.87120215 0.33662244
vn 0.32831199 0.90931026 0.25566791
vn 0.32831199 0.90931026 0.25566791
vn 0.32831199 0.90931026 0.25566791
vn 0.32831199 0.90931026 0.25566791
vn 0.39588304 0.90340151 0.16474931
vn 0.39588304 0.90340151 0.16474931
vn 0.33718743 0.92088010 0.19566422
vn 0.33718743 0.92088010 0.19566422
vn 0.33718743 0.92088010 0.19566422
vn 0.33718743 0.92088010 0.19566422
vn 0.19015286 0.93069539 0.31248676
vn 0.19015286 0.93069539 0.31248676
vn 0.16058832 0.92367690 0.34789709
vn 0.16058832 0.92367690 0.34789709
vn 0.16058832 0.92367690 0.34789709
vn 0.16058832 0.92367690 0.34789709
vn 0.15582617 0.92834058 0.33749367
vn 0.15582617 0.92834058 0.33749367
vn 0.18432512 0.92828234 0.32298012
vn 0.18432512 0.92828234 0.32298012
vn 0.18432512 0.92828234 0.32298012
vn 0.18432512 0.92828234 0.32298012
vn 0.16591312 0.92147920 0.35121064
vn 0.16591312 0.92147920 0.35121064
vn 0.10768758 0.93538007 0.33684940
vn 0.10768758 0.93538007 0.33684940
vn 0.10768758 0.93538007 0.33684940
vn 0.10768758 0.93538007 0.33684940
vn -6.0182260e-2 0.83088729 0.55317666
vn -6.0182260e-2 0.83088729 0.55317666
vn 6.8783248e-2 0.88802743 0.45461649
vn 6.8783248e-2 0.88802743 0.45461649
vn 6.8783248e-2 0.88802743 0.45461649
vn 6.8783248e-2 0.88802743 0.45461649
vn 3.2094423e-2 0.93850661 0.34376635
vn 3.2094423e-2 0.93850661 0.34376635
vn -3.0862494e-2 0.95140645 0.30638745
vn -3.0862494e-2 0.95140645 0.30638745
vn -3.0862494e-2 0.95140645 0.30638745
vn -3.0862494e-2 0.95140645 0.30638745
vn -3.8322952e-2 0.97517238 0.21810590
vn -3.8322952e-2 0.97517238 0.21810590
vn -0.21178743 0.94321413 0.25591638
vn -0.21178743 0.94321413 0.25591638
vn -0.21178743 0.94321413 0.25591638
vn -0.21178743 0.94321413 0.25591638
vn -0.20199438 0.88667667 0.41593599
vn -0.20199438 0.88667667 0.41593599
vn -0.25052455 0.93440479 0.25322943
vn -0.25052455 0.93440479 0.25322943
vn -0.25052455 0.93440479 0.25322943
vn -0.25052455 0.93440479 0.25322943
vn -0.33193505 0.86513086 0.37598898
vn -0.33193505 0.86513086 0.37598898
vn -0.16963438 0.93759629 0.30354138
vn -0.16963438 0.93759629 0.30354138
vn -0.16963438 0.93759629 0.30354138
vn -0.16963438 0.93759629 0.30354138
vn -0.18105184 0.95579971 0.23166170
vn -0.18105184 0.95579971 0.23166170
vn -0.18887292 0.98170706 2.4047228e-2
vn -0.18887292 0.98170706 2.4047228e-2
vn -0.18887292 0.98170706 2.4047228e-2
vn -0.18887292 0.98170706 2.4047228e-2
vn -0.17560384 0.98402984 2.9130105e-2
vn -0.17560384 0.98402984 2.9130105e-2
vn -0.21339207 0.97420360 7.3424602e-2
vn -0.21339207 0.97420360 7.3424602e-2
vn -0.21339207 0.97420360 7.3424602e-2
vn -0.21339207 0.97420360 7.3424602e-2
vn -0.19498286 0.98026150 3.2696593e-2
vn -0.19498286 0.98026150 3.2696593e-2
vn -0.24356721 0.96766186 6.5616600e-2
vn -0.24356721 0.96766186 6.5616600e-2
vn -0.24356721 0.96766186 6.5616600e-2
vn -0.24356721 0.96766186 6.5616600e-2
vn -0.27190290 0.96103683 4.9769728e-2
vn -0.27190290 0.96103683 4.9769728e-2
g cone2_Mountain
usemtl Mountain
f 1//65 66//2 2//69
f 1//66 128//64 65//1
f 2//70 66//2 3//73
f 3//71 66//2 67//3
f 3//72 68//4 4//75
f 4//77 69//5 5//79
f 5//78 70//6 6//81
f 6//82 70//6 7//86
f 7//83 70//6 71//7
f 7//84 72//8 8//87
f 8//88 72//8 9//92
f 9//89 72//8 73//9
f 9//90 74//10 10//93
f 10//94 74//10 11//98
f 11//95 74//10 75//11
f 11//96 76//12 12//99
f 12//100 76//12 13//104
f 13//101 76//12 77//13
f 13//102 78//14 14//105
f 14//106 78//14 15//110
f 15//107 78//14 79//15
f 15//108 80//16 16//111
f 16//112 80//16 17//116
f 17//113 80//16 81//17
f 17//114 82//18 18//117
f 18//118 82//18 19//122
f 19//119 82//18 83//19
f 19//120 84//20 20//123
f 20//124 84//20 21//128
f 21//125 84//20 85//21
f 21//126 86//22 22//129
f 22//130 86//22 23//134
f 23//131 86//22 87//23
f 23//132 88//24 24//135
f 24//136 88//24 25//140
f 25//137 88//24 89//25
f 25//138 90//26 26//141
f 26//142 90//26 27//146
f 27//143 90//26 91//27
f 27//144 92//28 28//147
f 28//148 92//28 29//152
f 29//149 92//28 93//29
f 29//150 94//30 30//153
f 30//154 94//30 31//158
f 31//155 94//30 95//31
f 31//156 96//32 32//159
f 32//160 96//32 33//164
f 33//161 96//32 97//33
f 33//162 98//34 34//165
f 34//166 98//34 35//170
f 35//167 98//34 99//35
f 35//168 100//36 36//171
f 36//172 100//36 37//176
f 37//173 100//36 101//37
f 37//174 102//38 38//177
f 38//178 102//38 39//182
f 39//179 102//38 103//39
f 39//180 104//40 40//183
f 40//184 104//40 41//188
f 41//185 104//40 105//41
f 41//186 106//42 42//189
f 42//190 106//42 43//194
f 43//191 106//42 107//43
f 43//192 108//44 44//195
f 44//196 108//44 45//200
f 45//197 108//44 109//45
f 45//198 110//46 46//201
f 46//202 110//46 47//206
f 47//203 110//46 111//47
f 47//204 112//48 48//207
f 48//208 112//48 49//212
f 49//209 112//48 113//49
f 49//210 114//50 50//213
f 50//214 114//50 51//218
f 51//215 114//50 115//51
f 51//216 116//52 52//219
f 52//220 116//52 53//224
f 53//221 116//52 117//53
f 53//222 118//54 54//225
f 54//226 118//54 55//230
f 55//227 118//54 119//55
f 55//228 120//56 56//231
f 56//232 120//56 57//236
f 57//233 120//56 121//57
f 57//234 122//58 58//237
f 58//238 122//58 59//242
f 59//239 122//58 123//59
f 59//240 124//60 60//243
f 60//244 124//60 61//248
f 61//245 124//60 125//61
f 61//246 126//62 62//249
f 62//250 126//62 63//254
f 63//251 126//62 127//63
f 63//252 128//64 64//255
f 64//256 128//64 1//68
f 65//1 66//2 1//67
f 65//1 128//64 66//2
f 66//2 128//64 67//3
f 67//3 68//4 3//74
f 67//3 128//64 68//4
f 68//4 69//5 4//76
f 68//4 70//6 69//5
f 69//5 70//6 5//80
f 70//6 68//4 71//7
f 71//7 68//4 72//8
f 71//7 72//8 7//85
f 72//8 68//4 75//11
f 72//8 75//11 73//9
f 73//9 74//10 9//91
f 73//9 75//11 74//10
f 75//11 68//4 123//59
f 75//11 76//12 11//97
f 75//11 78//14 76//12
f 76//12 78//14 77//13
f 77//13 78//14 13//103
f 78//14 75//11 79//15
f 79//15 75//11 94//30
f 79//15 80//16 15//109
f 79//15 82//18 80//16
f 80//16 82//18 81//17
f 81//17 82//18 17//115
f 82//18 79//15 83//19
f 83//19 79//15 86//22
f 83//19 84//20 19//121
f 83//19 85//21 84//20
f 85//21 83//19 86//22
f 85//21 86//22 21//127
f 86//22 79//15 94//30
f 86//22 94//30 87//23
f 87//23 88//24 23//133
f 87//23 89//25 88//24
f 89//25 87//23 90//26
f 89//25 90//26 25//139
f 90//26 87//23 94//30
f 90//26 92//28 91//27
f 91//27 92//28 27//145
f 92//28 90//26 94//30
f 92//28 94//30 93//29
f 93//29 94//30 29//151
f 94//30 75//11 101//37
f 94//30 101//37 95//31
f 95//31 96//32 31//157
f 95//31 98//34 96//32
f 96//32 98//34 97//33
f 97//33 98//34 33//163
f 98//34 95//31 101//37
f 98//34 100//36 99//35
f 99//35 100//36 35//169
f 100//36 98//34 101//37
f 101//37 75//11 123//59
f 101//37 102//38 37//175
f 101//37 103//39 102//38
f 103//39 101//37 106//42
f 103//39 104//40 39//181
f 103//39 106//42 104//40
f 104//40 106//42 105//41
f 105//41 106//42 41//187
f 106//42 101//37 108//44
f 106//42 108//44 107//43
f 107//43 108//44 43//193
f 108//44 101//37 123//59
f 108//44 111//47 109//45
f 109//45 110//46 45//199
f 109//45 111//47 110//46
f 111//47 108//44 123//59
f 111//47 112//48 47//205
f 111//47 113//49 112//48
f 113//49 111//47 115//51
f 113//49 114//50 49//211
f 113//49 115//51 114//50
f 115//51 111//47 123//59
f 115//51 116//52 51//217
f 115//51 117//53 116//52
f 117//53 115//51 123//59
f 117//53 118//54 53//223
f 117//53 119//55 118//54
f 119//55 117//53 123//59
f 119//55 120//56 55//229
f 119//55 121//57 120//56
f 121//57 119//55 123//59
f 121//57 122//58 57//235
f 121//57 123//59 122//58
f 123//59 68//4 126//62
f 123//59 124//60 59//241
f 123//59 126//62 124//60
f 124//60 126//62 125//61
f 125//61 126//62 61//247
f 126//62 68//4 127//63
f 127//63 68//4 128//64
f 127//63 128//64 63//253
